<svg xmlns="http://www.w3.org/2000/svg" viewBox="0 0 150 150">
  <defs>
    <style>
      .cls-1 {
        fill: #fff;
        opacity: 0.803;
      }

      .cls-2, .cls-3 {
        fill: none;
        stroke: #2e2e2e;
        stroke-linecap: round;
        stroke-miterlimit: 10;
      }

      .cls-2 {
        stroke-linejoin: round;
        stroke-width: 4px;
      }

      .cls-3 {
        stroke-width: 2px;
      }
    </style>
  </defs>
  <g id="Gruppe_1266" data-name="Gruppe 1266" transform="translate(-104 -338)">
    <circle id="Circle" class="cls-1" cx="75" cy="75" r="75" transform="translate(104 338)"/>
    <g id="Gruppe_1071" data-name="Gruppe 1071" transform="translate(143 375)">
      <path id="Pfad_774" data-name="Pfad 774" class="cls-2" d="M23.061,6.806a8.107,8.107,0,1,1-11.464,0A8.114,8.114,0,0,1,23.061,6.806Z" transform="translate(3.449 2.117)"/>
      <path id="Pfad_775" data-name="Pfad 775" class="cls-3" d="M26.89,18.9" transform="translate(11.882 9.022)"/>
      <path id="Pfad_776" data-name="Pfad 776" class="cls-3" d="M28.99,0" transform="translate(12.884)"/>
      <path id="Pfad_777" data-name="Pfad 777" class="cls-3" d="M28.99,18.9" transform="translate(12.884 9.022)"/>
      <path id="Pfad_778" data-name="Pfad 778" class="cls-2" d="M49.7,51.351l-23.416,7.4L2,11.92" transform="translate(0 5.69)"/>
      <path id="Pfad_779" data-name="Pfad 779" class="cls-2" d="M13.8,20.96,25.309,43.135,48.666,35.9" transform="translate(5.633 10.006)"/>
      <line id="Linie_1" data-name="Linie 1" class="cls-2" x2="14.966" y2="30.567" transform="translate(54.299 45.902)"/>
    </g>
  </g>
</svg>
