<svg xmlns="http://www.w3.org/2000/svg" xmlns:xlink="http://www.w3.org/1999/xlink" viewBox="0 0 215.921 215.921">
  <defs>
    <style>
      .cls-1 {
        fill: #2e2e2e;
      }

      .cls-2 {
        fill: #fff;
        opacity: 0.8;
      }

      .cls-3 {
        clip-path: url(#clip-path);
      }

      .cls-4 {
        opacity: 0.9;
      }

      .cls-5 {
        clip-path: url(#clip-path-2);
      }
    </style>
    <clipPath id="clip-path">
      <path id="Pfad_788" data-name="Pfad 788" class="cls-1" d="M0-34.867H149.945V64.786H0Z" transform="translate(0 34.867)"/>
    </clipPath>
    <clipPath id="clip-path-2">
      <rect id="Rechteck_1125" data-name="Rechteck 1125" class="cls-1" width="149.945" height="99.653"/>
    </clipPath>
  </defs>
  <g id="Gruppe_1268" data-name="Gruppe 1268" transform="translate(-80.04 -259.083)">
    <circle id="Circle" class="cls-2" cx="107.96" cy="107.96" r="107.96" transform="translate(80.04 259.083)"/>
    <g id="Gruppe_1082" data-name="Gruppe 1082" transform="translate(113.259 356.947)">
      <g id="Gruppe_1081" data-name="Gruppe 1081" class="cls-3" transform="translate(0 -34.867)">
        <g id="Gruppe_1080" data-name="Gruppe 1080" class="cls-4" transform="translate(0 0.001)">
          <g id="Gruppe_1079" data-name="Gruppe 1079">
            <g id="Gruppe_1078" data-name="Gruppe 1078" class="cls-5">
              <g id="Gruppe_1077" data-name="Gruppe 1077" transform="translate(0 -0.001)">
                <path id="Pfad_787" data-name="Pfad 787" class="cls-1" d="M41.723,63.237l83.385-83.388a8.13,8.13,0,0,0,0-11.5,8.125,8.125,0,0,0-11.5,0L35.744,46.217-8.817,5.183A8.118,8.118,0,0,0-20.3,5.652a8.126,8.126,0,0,0,.472,11.487l50.3,46.327a8.122,8.122,0,0,0,11.258-.229" transform="translate(22.455 34.033)"/>
              </g>
            </g>
          </g>
        </g>
      </g>
    </g>
  </g>
</svg>
