<svg xmlns="http://www.w3.org/2000/svg" xmlns:xlink="http://www.w3.org/1999/xlink" viewBox="0 0 298.461 356.959">
  <defs>
    <style>
      .cls-1 {
        fill: rgba(255,187,2,0.64);
      }

      .cls-2 {
        clip-path: url(#clip-path);
      }

      .cls-3 {
        fill: #ffbb02;
      }

      .cls-4, .cls-5 {
        fill: none;
        stroke: #fff;
      }

      .cls-4 {
        stroke-linecap: round;
        stroke-linejoin: round;
      }

      .cls-5 {
        stroke-miterlimit: 10;
      }
    </style>
    <clipPath id="clip-path">
      <path id="Pfad_729" data-name="Pfad 729" class="cls-1" d="M0-88.628H153.777V110.125H0Z" transform="translate(0 88.628)"/>
    </clipPath>
  </defs>
  <g id="Gruppe_1281" data-name="Gruppe 1281" transform="translate(-39 -150.68)">
    <g id="Gruppe_1280" data-name="Gruppe 1280">
      <path id="Pfad_858" data-name="Pfad 858" class="cls-3" d="M-475.737,1046.868l22.644,3.726,29.043,3.467h70.342l28.387-3.467,29.066-3.726-9.144,22.255-3.4,5-4.6,3.059-7.777,1.428-25.155,3.611-10.849,2.077H-370.92l-14.644.8-20.127-.8-21.773-2.077-23.127-3.611-10.1-2.241-6.135-7.243-7.1-17.261Z" transform="translate(574 -679)"/>
      <g id="Gruppe_1263" data-name="Gruppe 1263" transform="translate(111.63 178.399)">
        <path id="Pfad_728" data-name="Pfad 728" class="cls-3" d="M1.716,62.945q.433-6.63.77-13.266l.092-1.632a36.428,36.428,0,0,0-.044-7.129.769.769,0,0,0,.142-.393c1-15.984.55-34.937,1.136-54.308v-12.1c.192-7.094-.667-1.005,0-8.158l1-5.807c.455-5.03,1.893-10.28,6.924-11.28,0,0,0-1.033,0-1.033.037,0,1.1.007,1.141,0H14.5c.009,0,1.962,0,1.969,0,5.241-.735,5.835-.316,11.329,0,2.554.147,6.734-.037,9.251,0,12.768.189,7.269-.011,19.182,0H74.789c11.913-.011,18.328.189,31.1,0,2.516-.037,10.792.147,13.346,0,5.494-.318,10.344-.733,15.584,0,5.365.8,8.249,5.116,8.717,10.262l.131,6.594c.662,7.12.851,11.562,1.045,18.623v6.12c.588,19.443.645,35.126,1.642,51.062v0c.549,14.7,1.639,30.875,4.228,51.214.066.785-.846.749-.774,1.552,0,.024.77-.024.774,0,.04.431,0,2.362,0,2.362s1.169-.871,1.423,0c.815,2.791,2.65,14.043,2.843,15.88,1.377,13.211,3.6,15.53-2.843,28.274l-19.809,2.5-28.083,2.087H73.638l-51.349-1.19-24.313-4.67-4.15-5.877c-3.544-17.591,2.917-28.236,4.15-42.79.028-.344.8-3.746.83-4.091,0,0,.989-4.2.989-4.205.759-9.013,1.447-11.317,1.922-18.61" transform="translate(1.446 52.742)"/>
      </g>
    </g>
    <g id="Stuhl_Outline_white" transform="translate(-253.17 74.119)">
      <path id="Pfad_859" data-name="Pfad 859" class="cls-4" d="M842.921,210.422q-4.577,18.3-9.159,36.615c-.013.051-.026.107-.038.158a.331.331,0,0,1-.021.068,1.249,1.249,0,0,1-.06.132h0a1.25,1.25,0,0,1-.086.124.942.942,0,0,1-.111.115,1.248,1.248,0,0,1-.3.2,2.192,2.192,0,0,1-.393.15,3.566,3.566,0,0,1-1.039.107c-.047,0-.094,0-.141,0s-.1,0-.15-.013c-.1,0-.205-.021-.3-.034-.2-.03-.4-.068-.6-.111s-.385-.107-.573-.171a5.664,5.664,0,0,1-.526-.218c-.085-.038-.167-.081-.248-.12s-.154-.085-.226-.128v0c-.073-.043-.145-.094-.214-.141s-.132-.1-.2-.15-.124-.1-.184-.158a1.992,1.992,0,0,1-.162-.167,1.9,1.9,0,0,1-.192-.248.243.243,0,0,1-.034-.056.445.445,0,0,0-.026-.047c-.043-.085-.081-.175-.115-.265-.043-.107-.077-.209-.111-.316s-.073-.235-.107-.355c-.017-.068-.034-.132-.051-.2-.008-.034-.017-.073-.026-.107s-.021-.09-.034-.137c-.038-.15-.073-.3-.107-.453-.017-.081-.034-.167-.056-.248l-.026-.128c-.013-.06-.026-.115-.038-.175-.081-.4-.158-.795-.235-1.192-.086-.436-.167-.876-.244-1.316-.085-.462-.167-.927-.248-1.393s-.167-.957-.252-1.44-.171-.974-.252-1.457c-.09-.5-.175-1-.265-1.509-.111-.654-.227-1.308-.338-1.962-.085-.5-.167-1-.252-1.5-.064-.4-.132-.8-.192-1.21-.026-.171-.051-.338-.077-.5s-.043-.308-.064-.457c-.034-.265-.073-.534-.1-.8-.026-.214-.047-.427-.068-.641-.034-.368-.051-.735-.056-1.1,0-.171,0-.342.013-.513.009-.154.017-.308.034-.457q.026-.276.064-.551c.03-.209.06-.415.1-.624.483-2.722,1.222-5.372,1.893-8.048q.346-1.4.7-2.782.333-1.321.684-2.628c.086-.312.171-.624.261-.94.068-.231.137-.466.209-.7.06-.192.12-.385.188-.573.051-.15.107-.295.171-.444.051-.12.107-.239.167-.35a2.206,2.206,0,0,1,.171-.269,1.622,1.622,0,0,1,.162-.18,1.2,1.2,0,0,1,.209-.154,1.331,1.331,0,0,1,.278-.12,5.179,5.179,0,0,1,2.081-.034c.205.017.41.038.62.064s.427.043.641.068.4.043.6.068.4.047.594.073.385.051.577.081.363.06.547.094c.09.021.18.038.269.06a1.142,1.142,0,0,0,.115.03c.017.009.039.013.056.021a.139.139,0,0,1,.056.017,1.756,1.756,0,0,1,.239.081,1.035,1.035,0,0,1,.1.043.263.263,0,0,0,.051.021.509.509,0,0,1,.047.021c.068.034.133.073.2.111.03.021.056.038.081.06a.237.237,0,0,0,.038.03c.013.013.026.021.039.034a1.7,1.7,0,0,1,.15.154,1.245,1.245,0,0,1,.137.188l.026.038c.013.021.03.043.043.064a2.019,2.019,0,0,0,.188.239c.051.056.107.111.162.162s.12.107.184.158.132.1.2.15.141.094.214.141h0c.073.047.15.09.226.132s.162.085.248.124c.171.081.35.154.53.218s.38.12.573.171c.051.009.1.021.15.034s.1.021.15.03c.1.017.2.034.3.047a5.481,5.481,0,0,0,.59.047,3.553,3.553,0,0,0,1.039-.111,2.077,2.077,0,0,0,.393-.15,1.341,1.341,0,0,0,.3-.2.906.906,0,0,0,.111-.111.824.824,0,0,0,.09-.124h0a.9.9,0,0,0,.06-.132.563.563,0,0,0,.034-.141.61.61,0,0,0,.009-.154.706.706,0,0,0-.021-.162,1.123,1.123,0,0,0-.051-.171.432.432,0,0,0-.03-.064.046.046,0,0,1-.009-.021.41.41,0,0,0-.021-.043.147.147,0,0,0-.026-.038,2.119,2.119,0,0,0-.739-.7" transform="translate(-304.599 -75.007)"/>
      <path id="Pfad_860" data-name="Pfad 860" class="cls-4" d="M561.07,713.57a3.736,3.736,0,0,0,.453.521q.135.128.282.256c.051.039.1.081.154.124s.124.094.188.141c.282.205.577.393.88.573.342.2.692.38,1.047.556.423.205.855.4,1.286.581.5.209,1,.41,1.5.6.41.154.825.308,1.235.453.5.18,1.009.351,1.513.526.521.175,1.043.35,1.569.517.308.1.62.2.927.3l2.68.872c.509.162,1.017.329,1.521.5q1.577.526,3.137,1.081c.385.137.761.295,1.133.466.393.18.778.372,1.154.586s.718.414,1.064.641q.295.2.59.41l1.291,1.077c.077.3.932.727.932,2.009" transform="translate(-153.688 -364.502)"/>
      <path id="Pfad_861" data-name="Pfad 861" class="cls-4" d="M686.323,713.57c-.03.043-.064.086-.094.128s-.073.09-.107.132c-.077.09-.158.175-.244.261a6.056,6.056,0,0,1-.615.526c-.278.205-.569.393-.863.573-.333.2-.68.38-1.03.556-.415.205-.838.4-1.265.581-.487.209-.983.41-1.479.6-.4.154-.812.308-1.218.453-.491.18-.992.35-1.487.526-.513.175-1.026.35-1.539.517-.3.1-.607.2-.91.3q-1.321.436-2.633.872c-.5.162-1,.329-1.5.5-1.03.351-2.06.71-3.081,1.081-.355.128-.705.278-1.051.436-.38.175-.756.368-1.12.573s-.692.406-1.026.628-.667.457-.983.709q-.256.2-.5.41c-.137.12-.269.239-.4.363-.115.107-.231.222-.338.338s-.205.226-.3.346a3.342,3.342,0,0,0-.235.316,2.538,2.538,0,0,0-.175.295,1.336,1.336,0,0,0-.1.256.863.863,0,0,0-.034.231" transform="translate(-211.482 -364.502)"/>
      <path id="Pfad_862" data-name="Pfad 862" class="cls-4" d="M867.79,495.89a11.183,11.183,0,0,0,1.248-.5c.03-.013.056-.03.085-.043.2-.094.385-.192.573-.3a.021.021,0,0,0,.013,0,8.835,8.835,0,0,0,.927-.6c.047-.034.094-.073.137-.107" transform="translate(-329.319 -238.964)"/>
      <path id="Pfad_863" data-name="Pfad 863" class="cls-4" d="M627.842,712.061c-.068-.03-.141-.056-.214-.081-6.984-2.38-30.054-2.59-37.012-2.59s-30.029.209-37.012,2.59c-.073.026-.145.051-.214.081" transform="translate(-149.291 -362.109)"/>
      <path id="Pfad_864" data-name="Pfad 864" class="cls-4" d="M829.7,533.044q2.718-6.84,5.445-13.681,3.77-9.456,7.552-18.9.949-2.372,1.889-4.74.84-2.109,1.675-4.21c.239-.6.479-1.21.722-1.816.214-.539.427-1.081.641-1.62,3.329-8.437,6.979-11.151,16.2-10.044q8.475,1.013,16.963,1.975,4.244.481,8.488.945c1.415.154,2.829.295,4.24.491.705.1,1.406.209,2.1.363.376.086,1.868.192,1.863.868v3.953" transform="translate(-307.508 -229.498)"/>
      <path id="Pfad_865" data-name="Pfad 865" class="cls-4" d="M818.427,374.772c-.009-.056-.021-.107-.03-.158-.338-1.8-.607-3.607-.838-5.419-.047-.363-.09-.722-.133-1.081-.055-.462-.107-.927-.162-1.393l-.115-1.064c-.171-1.667-.308-3.338-.427-5.013q-.09-1.276-.175-2.551c-.056-.842-.107-1.68-.158-2.522-.278-4.569-.5-9.138-.692-13.711-.124-2.919-.611-10.719.03-13.689.039-.175.077-.35.12-.526s.085-.346.133-.521c.094-.346.2-.684.308-1.026.235-.731.509-1.445.812-2.145,1.517-3.509,3.522-6.757,5.159-10.2.235-.491.466-.987.7-1.479l.654-1.423q.609-1.346,1.184-2.705c.38-.9,2.265-5.74,2.624-6.646" transform="translate(-299.321 -128.547)"/>
      <path id="Pfad_866" data-name="Pfad 866" class="cls-4" d="M822.51,473.1c-.013-.051-.021-.1-.03-.158.081.423.175.846.282,1.265.009.034.017.064.026.094.017.064.034.128.051.2.086.321.179.637.282.953.137.423.295.838.462,1.252.158.376.329.752.517,1.12.09.18.184.355.282.534.047.09.1.175.15.261.06.1.12.209.184.308.214.355.436.7.671,1.039.094.132.184.261.282.393" transform="translate(-303.374 -226.715)"/>
      <path id="Pfad_867" data-name="Pfad 867" class="cls-4" d="M817.91,478.79a9.823,9.823,0,0,0,1.244,1.953,10.59,10.59,0,0,0,.786.85,11.312,11.312,0,0,0,1.757,1.363c.068.043.137.086.205.124s.145.09.222.133c.154.09.312.18.47.261.316.167.637.325.957.47.077.034.154.068.235.1s.145.064.222.094c.154.064.3.124.457.184.32.128.645.244.97.355s.633.209.949.308.641.192.966.278l.227.064c.077.021.154.039.231.06l.479.128,1.043.256c.278.068.556.128.829.192.359.081.718.158,1.073.239l.752.154c.244.047.491.09.735.124.573.086,1.15.158,1.727.218.346.03.688.064,1.034.094.4.03.791.06,1.188.085.821.056,1.641.1,2.466.132" transform="translate(-300.757 -230.065)"/>
      <path id="Pfad_868" data-name="Pfad 868" class="cls-4" d="M817.081,907.85v.919H808.17v-.919" transform="translate(-295.18 -475.749)"/>
      <path id="Pfad_869" data-name="Pfad 869" class="cls-4" d="M460.71,905.68v.927h-9.83v-.919" transform="translate(-90.593 -474.506)"/>
      <path id="Pfad_870" data-name="Pfad 870" class="cls-4" d="M460.861,907.85v.919H451.95v-.919" transform="translate(-91.205 -475.749)"/>
      <path id="Pfad_871" data-name="Pfad 871" class="cls-4" d="M618.5,743.288l9.578-.081,9.005-.077v36.862H618.709Z" transform="translate(-186.573 -381.429)"/>
      <path id="Pfad_872" data-name="Pfad 872" class="cls-4" d="M360.454,533.045q-1.34-3.378-2.684-6.753-1.353-3.4-2.71-6.8-3.814-9.565-7.646-19.134-.91-2.282-1.825-4.569-1.532-3.853-3.06-7.706c-3.329-8.437-6.979-11.151-16.2-10.044q-8.475,1.013-16.963,1.975-4.244.481-8.488.945c-1.415.154-2.829.295-4.24.492-.705.1-1.406.209-2.1.363-.376.085-1.868.192-1.863.868v3.953" transform="translate(0 -229.498)"/>
      <path id="Pfad_873" data-name="Pfad 873" class="cls-4" d="M432.011,602.028c-15.352-.658-29.6-2.812-44.269-7.706-13.771-4.595-28.674-12.672-32.05-29.152l.419,1.774c-.158-.59-.295-1.18-.419-1.774-3.744-18.271-10.133-50.218-16.181-68.015l.141.462h-30.3c-.2,0-.406,0-.607,0-.18,0-.359,0-.543,0-.342,0-.68-.009-1.021-.009-.521,0-1.043-.017-1.564-.034a20.928,20.928,0,0,1-6.9-1.415c-1.1-.419-2.188-.885-3.261-1.38-.915-.419-3.317-1.252-1.727-1.932,1.718-.731,12.279-1.757,14.018-1.949q9.3-1.045,18.587-2.158c.162-.017.321-.038.483-.056.483-.06.97-.107,1.457-.154.427-.034.855-.068,1.282-.081.342-.013.688-.017,1.03-.013s.654.021.979.047c.286.026.573.064.859.111a7.93,7.93,0,0,1,.838.192,6.355,6.355,0,0,1,.739.269,6.69,6.69,0,0,1,.7.359,6.125,6.125,0,0,1,.637.453,6.863,6.863,0,0,1,.611.56,8.712,8.712,0,0,1,.59.671c.205.261.4.53.586.8.2.3.38.6.556.91.205.359.4.727.581,1.1.192.389.372.782.547,1.184.188.436.368.872.539,1.316q.8,2.064,1.6,4.133.9,2.327,1.816,4.65,2.314,5.917,4.65,11.826,1.045,2.648,2.09,5.3,1.4,3.552,2.812,7.108,1.257,3.173,2.509,6.347c.282.709.56,1.415.842,2.124q1.462,3.686,2.919,7.372.686,1.731,1.372,3.466c.064.162.128.325.2.487.077.2.158.4.239.6.1.239.192.479.291.714.081.2.158.393.239.59a14.535,14.535,0,0,0,.821,1.68,13.882,13.882,0,0,0,1.069,1.6,15.163,15.163,0,0,0,1.291,1.479,16.73,16.73,0,0,0,1.457,1.291,16.2,16.2,0,0,0,1.714,1.175,16.8,16.8,0,0,0,1.8.94,18.207,18.207,0,0,0,3.911,1.248,342.225,342.225,0,0,0,137.65,0,17.922,17.922,0,0,0,1.992-.513,17.446,17.446,0,0,0,1.923-.735,17.069,17.069,0,0,0,3.517-2.116,16.036,16.036,0,0,0,1.457-1.291,15.159,15.159,0,0,0,1.291-1.479,14.266,14.266,0,0,0,1.068-1.6,13.849,13.849,0,0,0,.821-1.68c.077-.2.158-.393.239-.59.094-.239.192-.479.291-.714.081-.2.158-.393.235-.59.064-.162.133-.329.2-.5q.686-1.737,1.372-3.466,1.462-3.686,2.919-7.372c.282-.709.56-1.415.842-2.124q1.257-3.173,2.509-6.347,1.4-3.552,2.812-7.107,1.045-2.654,2.09-5.3,2.334-5.911,4.65-11.826,1.718-4.385,3.419-8.783c.171-.44.35-.88.539-1.316.175-.4.355-.795.547-1.184.184-.372.376-.739.581-1.1.175-.308.359-.611.556-.91.184-.274.376-.547.586-.8.184-.231.385-.457.59-.671a7.573,7.573,0,0,1,.611-.56,7.439,7.439,0,0,1,.637-.453,6.292,6.292,0,0,1,.7-.359,7.723,7.723,0,0,1,.744-.269,7.934,7.934,0,0,1,.838-.192c.286-.051.573-.086.859-.111.325-.026.654-.043.983-.047s.688,0,1.03.013c.427.013.855.047,1.278.081.487.043.974.09,1.457.154.162.017.32.038.483.056q9.289,1.115,18.587,2.158c1.74.192,12.3,1.218,14.018,1.949,1.59.68-.816,1.513-1.727,1.932-1.073.5-2.158.962-3.265,1.38a20.949,20.949,0,0,1-6.9,1.415h-.1c-.41.013-.825.021-1.239.026h0c-.44.009-.876.013-1.312.017h0c-.359,0-.722.009-1.081.009H543.966l-.222-.462c-6.043,17.8-12.437,49.744-16.181,68.015-3.376,16.476-18.279,24.558-32.05,29.152-14.668,4.894-29.345,7.052-44.7,7.706" transform="translate(-0.302 -235.583)"/>
      <path id="Pfad_874" data-name="Pfad 874" class="cls-4" d="M513.8,837.026a5.781,5.781,0,0,0,2.992-1.833,5.7,5.7,0,0,0,1.551-3.765l.239-2.043c-.094,0-.137.047-.141.145-.034.633-.064,1.265-.1,1.9a6.137,6.137,0,0,1-4.543,5.6c-.2.051-.4.107-.6.162l.154-.039c-1.269.342-2.547.658-3.821,1q-4.763,1.276-9.514,2.586c-18.54,5.107-37.016,10.351-55.24,16.531l0,0a2.642,2.642,0,0,0-1.034.526c-.368.338-.462.628-.141,1.047q1.083,1.455,2.175,2.91a.545.545,0,0,0,.491.248h2.654c.419,0,.838,0,1.257-.009h.056c1.932,0,3.859,0,5.791-.021h.06c.162,0,.321.034.479.034l3.291-1.859c9.847-2.026,19.763-3.641,29.674-5.283s19.844-3.163,29.789-4.6c.017,0,.034,0,.056,0a57.463,57.463,0,0,1,8.27-1.034,56.82,56.82,0,0,1,8.266,1.034c.017,0,.034,0,.051,0q14.918,2.16,29.789,4.6c9.911,1.641,19.827,3.257,29.674,5.283a1.515,1.515,0,0,1,.547.265l.474.406c.248.256.5.509.756.752a1.447,1.447,0,0,0,.735.41,1.264,1.264,0,0,0,.222.026h.684v.915h9.826v-.919h-9.958c.162,0,.321-.039.479-.034h.06c1.932.026,3.859.017,5.791.021h.051c.419,0,.838.009,1.257.009H609a.545.545,0,0,0,.492-.248c.727-.97,1.449-1.94,2.175-2.911.316-.419.222-.709-.145-1.047a2.671,2.671,0,0,0-1.034-.526l0,0c-18.177-6.159-36.6-11.4-55.091-16.489l-.15-.039q-4.757-1.308-9.518-2.586c-1.274-.342-2.552-.662-3.821-1l.154.039-.6-.167a6.12,6.12,0,0,1-4.543-5.6c-.034-.633-.064-1.265-.1-1.9,0-.1-.047-.137-.141-.145" transform="translate(-86.312 -430.816)"/>
      <path id="Pfad_875" data-name="Pfad 875" class="cls-4" d="M405.78,494q.083.071.18.141" transform="translate(-64.768 -238.775)"/>
      <path id="Pfad_876" data-name="Pfad 876" class="cls-4" d="M874.77,494.151c.06-.047.12-.094.175-.141" transform="translate(-333.316 -238.78)"/>
      <path id="Pfad_877" data-name="Pfad 877" class="cls-4" d="M432.129,478.79a9.824,9.824,0,0,1-1.244,1.953,10.585,10.585,0,0,1-.786.85,11.3,11.3,0,0,1-1.757,1.363c-.068.043-.137.086-.205.124s-.145.09-.222.133c-.154.09-.312.18-.47.261-.316.167-.637.325-.957.47-.081.034-.154.068-.235.1s-.145.064-.222.094c-.154.064-.3.124-.457.184-.321.128-.641.244-.97.355s-.633.209-.949.308-.641.192-.966.278l-.227.064c-.077.021-.154.039-.231.06l-.479.128-1.043.256c-.278.068-.556.128-.833.192-.359.081-.714.158-1.073.239l-.752.154c-.244.047-.491.09-.735.124-.573.086-1.15.158-1.727.218-.346.03-.688.064-1.034.094-.4.03-.791.06-1.188.085q-1.231.083-2.466.132" transform="translate(-67.7 -230.065)"/>
      <path id="Pfad_878" data-name="Pfad 878" class="cls-4" d="M606.46,332.507c10.326-13.134,1.445-34.55-.432-48.975-3.543-27.208-3.543-27.208-4.492-51.958-1.184-30.806-1.086-51.116-1.748-67.917-.5-12.659,1.162-23.511-16.211-22.883s-53.223.645-53.223.645h-1.09s-35.85-.013-53.223-.645S460.327,151,459.831,163.657c-.662,16.8-.56,37.11-1.748,67.917-.953,24.746-.953,24.746-4.5,51.958-1.876,14.42-10.924,35.444-.6,48.582" transform="translate(-89.017 -36.5)"/>
      <path id="Pfad_879" data-name="Pfad 879" class="cls-4" d="M443.5,586.5s37.6,6.082,56.941,6.082c13.365,0,21.135-.231,27.43-.231s14.061.231,27.426.231c19.344,0,56.591-6.082,56.591-6.082" transform="translate(-86.367 -291.741)"/>
      <path id="Pfad_880" data-name="Pfad 880" class="cls-4" d="M598.131,135.77c1.445-6.539,2.628-12.984,4.3-22.259,1.017-5.659,1.44-7.308.432-12.946-1.068-5.983-1.214-7.706-2.872-16.279-1.821-9.4-3.15-7.048-21.049-6.945-21.211.12-68.69.124-73.61.124h-6.949c-4.915,0-52.4,0-73.61-.124-17.9-.1-20.19-2.457-22.011,6.945-1.658,8.573-1.808,10.3-2.872,16.279-1,5.637-.586,7.291.432,12.946,1.671,9.274,3.043,14.591,4.928,22.306,2.218,10.437,7.958,32.8,8.856,35.666a43.268,43.268,0,0,0,1.966,5.411c.389.893.727,1.812,1.107,2.71s.778,1.808,1.184,2.705q.321.712.654,1.423c.231.492.462.987.7,1.479,1.637,3.441,3.641,6.689,5.159,10.2.3.705.577,1.419.812,2.145.107.342.214.68.308,1.026.047.171.09.346.132.521s.081.35.12.526c.641,2.975.15,10.775.03,13.689q-.289,6.86-.688,13.711-.077,1.257-.158,2.522t-.175,2.552q-.18,2.507-.432,5.013c-.034.355-.073.714-.115,1.064-.051.462-.107.927-.162,1.389-.043.359-.085.722-.132,1.081-.231,1.812-.5,3.62-.838,5.419-.009.051-.021.1-.03.158l-.03.158c.013-.051.021-.1.03-.158-.081.423-.175.846-.278,1.265-.009.034-.017.064-.026.094-.017.068-.034.132-.051.2-.085.321-.18.637-.282.953-.137.423-.291.838-.462,1.252-.158.376-.329.752-.517,1.12-.09.18-.184.355-.282.534-.047.09-.1.175-.15.261-.06.1-.12.209-.184.308-.214.355-.436.7-.671,1.039-.094.132-.184.261-.282.393" transform="translate(-61.066)"/>
      <path id="Pfad_881" data-name="Pfad 881" class="cls-5" d="M851.208,230.727a1.98,1.98,0,1,1-1.979-2.047A2.012,2.012,0,0,1,851.208,230.727Z" transform="translate(-317.558 -86.85)"/>
      <path id="Pfad_882" data-name="Pfad 882" class="cls-5" d="M847.538,243.787a1.98,1.98,0,1,1-1.979-2.047A2.012,2.012,0,0,1,847.538,243.787Z" transform="translate(-315.456 -94.328)"/>
      <path id="Pfad_883" data-name="Pfad 883" class="cls-5" d="M843.708,257.667a1.98,1.98,0,1,1-1.979-2.047A2.012,2.012,0,0,1,843.708,257.667Z" transform="translate(-313.263 -102.276)"/>
      <path id="Pfad_884" data-name="Pfad 884" class="cls-5" d="M840.2,271.227a1.98,1.98,0,1,1-1.979-2.047A2.012,2.012,0,0,1,840.2,271.227Z" transform="translate(-311.253 -110.041)"/>
    </g>
  </g>
</svg>
