<svg xmlns="http://www.w3.org/2000/svg" viewBox="0 0 150 150">
  <defs>
    <style>
      .cls-1 {
        fill: #fff;
        opacity: 0.803;
      }

      .cls-2 {
        fill: none;
        stroke: #2e2e2e;
        stroke-linecap: round;
        stroke-linejoin: round;
        stroke-miterlimit: 10;
        stroke-width: 4px;
      }
    </style>
  </defs>
  <g id="Gruppe_1265" data-name="Gruppe 1265" transform="translate(-105.045 -338.094)">
    <circle id="Circle" class="cls-1" cx="75" cy="75" r="75" transform="translate(105.045 338.094)"/>
    <path id="Pfad_773" data-name="Pfad 773" class="cls-2" d="M2,55.916,35.5,21.7,15.225,2V83.226L35.5,63.967,2,28.309" transform="translate(161.5 370.694)"/>
  </g>
</svg>
