<?xml version="1.0" encoding="utf-8"?>
<!-- Generator: Adobe Illustrator 22.1.0, SVG Export Plug-In . SVG Version: 6.00 Build 0)  -->
<svg version="1.1" id="Ebene_1" xmlns="http://www.w3.org/2000/svg" xmlns:xlink="http://www.w3.org/1999/xlink" x="0px" y="0px"
	 viewBox="0 0 365 167" style="enable-background:new 0 0 365 167;" xml:space="preserve">
<style type="text/css">
	.st0{opacity:0.94;fill:#FFFFFF;}
	.st1{fill:#FFFFFF;}
	.st2{opacity:0.94;}
</style>
<polygon class="st0" points="48.09,72.72 35.42,88.34 33.75,88.34 33.75,72.72 27.05,72.72 27.05,107.32 33.75,107.32 33.75,91.69 
	35.42,91.69 48.09,107.32 56.19,107.32 42.12,90.02 56.19,72.72 "/>
<path class="st1" d="M330.14,83.09h-0.01h-13.26h-0.01c-0.05,1.89-0.33,3.73-0.81,5.47c-0.17,0.68-0.39,1.34-0.64,1.98
	c-2.43,6.17-8.44,10.53-15.47,10.53c-9.18,0-16.62-7.44-16.62-16.62c0-0.48,0.02-0.96,0.06-1.42c0.25,5.51,4.54,9.9,10.11,9.9
	c5.55,0,9.82-4.35,10.09-9.84h13.27c0.01-0.2,0.02-0.41,0.02-0.61c0-12.72-10.31-23.02-23.02-23.02c-9.68,0-17.97,5.98-21.38,14.44
	l-0.97,2.99c-0.64,2.41-0.98,4.94-0.98,7.55c0,16.24,13.17,29.42,29.42,29.42c7.67,0,14.49-3.12,19.89-7.74
	c6.31-5.39,10.32-13.42,10.32-22.38C330.15,83.55,330.14,83.29,330.14,83.09"/>
<g class="st2">
	<path class="st1" d="M107.04,69.36c1.85,0,3.35-1.49,3.35-3.35c0-1.85-1.5-3.34-3.35-3.34s-3.35,1.5-3.35,3.34
		C103.69,67.87,105.19,69.36,107.04,69.36"/>
	<path class="st1" d="M123.45,90.02c0,6.28-5.08,11.38-11.38,11.38c-6.29,0-11.38-5.1-11.38-11.38c0-6.28,5.08-11.38,11.38-11.38
		C118.36,78.64,123.45,83.74,123.45,90.02 M130.14,90.02c0-9.98-8.09-18.08-18.08-18.08c-9.98,0-18.08,8.09-18.08,18.08
		c0,9.98,8.09,18.08,18.08,18.08C122.05,108.1,130.14,100,130.14,90.02"/>
	<path class="st1" d="M117.09,69.36c1.85,0,3.35-1.49,3.35-3.35c0-1.85-1.5-3.34-3.35-3.34c-1.85,0-3.35,1.5-3.35,3.34
		C113.74,67.87,115.24,69.36,117.09,69.36"/>
	<path class="st1" d="M164.91,96.73c0,1.3-0.41,2.39-1.65,3.12c-1.26,0.71-2.62,0.77-4.31,0.77h-11.64v-7.25h11.64
		c1.69,0,3.04,0.06,4.34,0.73C164.44,94.78,164.91,95.57,164.91,96.73 M164.87,82.78c0,1.31-0.41,2.39-1.64,3.13
		c-1.26,0.7-2.62,0.76-4.31,0.76h-11.6v-7.25h11.6c1.69,0,3.04,0.06,4.34,0.73C164.4,80.82,164.87,81.62,164.87,82.78 M170.51,86.56
		c0.88-1.51,1.31-3.26,1.31-5.25c0-1.42-0.22-2.68-0.81-3.75c-0.58-1.06-1.3-1.96-2.26-2.67c-0.96-0.72-2.15-1.27-3.38-1.65
		c-1.23-0.37-2.56-0.53-4.2-0.53H140.6v34.61h20.59c1.36,0,2.69-0.1,3.98-0.38c1.29-0.28,2.48-0.77,3.48-1.47
		c0.99-0.7,1.84-1.68,2.43-2.85c0.6-1.17,0.78-2.63,0.78-4.4c0-1.96-0.51-3.64-1.53-5.05c-1.02-1.41-2.45-2.47-4.3-3.15
		C167.87,89.22,169.64,88.07,170.51,86.56"/>
	<path class="st1" d="M189.97,93.37h20.02v-6.7h-20.02c0.35-2.03,0.47-7.25,9.07-7.25h11.47v-6.7h-13.43
		c-4.58,0-8.05,1.48-10.43,4.45c-2.37,2.96-3.56,7.25-3.56,12.85s1.19,9.9,3.56,12.86c2.38,2.97,5.85,4.44,10.43,4.44h13.43v-6.7
		h-11.47C190.44,100.62,190.33,95.4,189.97,93.37"/>
	<path class="st1" d="M243.51,82.78c0,1.31-0.41,2.39-1.65,3.13c-1.26,0.7-2.62,0.76-4.31,0.76h-9.07v-7.25h9.07
		c1.69,0,3.04,0.06,4.34,0.73C243.04,80.82,243.51,81.62,243.51,82.78 M250.43,82.78c0-6.1-3.15-10.07-10.27-10.07h-18.38v34.61h6.7
		V93.37h8.71l7.03,13.95h8.11l-7.67-14.55c0.48-0.17,0.81-0.34,1.53-0.67C247.07,91.57,250.43,89.72,250.43,82.78"/>
	<path class="st1" d="M65.07,92.68l0-19.97h6.7v19.97c0,7.97,4.63,7.97,8.01,7.97h7.93v6.66H76.98
		C71.14,107.32,65.07,103.94,65.07,92.68"/>
</g>
</svg>
