<?xml version="1.0" encoding="utf-8"?>
<!-- Generator: Adobe Illustrator 22.1.0, SVG Export Plug-In . SVG Version: 6.00 Build 0)  -->
<svg version="1.1" id="Ebene_1" xmlns="http://www.w3.org/2000/svg" xmlns:xlink="http://www.w3.org/1999/xlink" x="0px" y="0px"
	 viewBox="0 0 150 150" style="enable-background:new 0 0 150 150;" xml:space="preserve">
<style type="text/css">
	.st0{opacity:0.803;fill:#FFFFFF;enable-background:new    ;}
	.st1{fill:none;stroke:#2E2E2E;stroke-width:4;stroke-linecap:round;stroke-linejoin:round;stroke-miterlimit:10;}
	.st2{enable-background:new    ;}
	.st3{fill:#2E2E2E;}
</style>
<g id="Gruppe_1267" transform="translate(-107.045 -338.094)">
	<circle id="Circle" class="st0" cx="182.04" cy="413.09" r="75"/>
	<g id="Gruppe_1075" transform="translate(160.5 379.5)">
		<g id="Gruppe_1154" transform="translate(-4.735 -4.5)">
			<path id="Pfad_830" class="st1" d="M37.25,74.67c0,2.07-1.68,3.74-3.74,3.74c-0.01,0-0.01,0-0.02,0H5.76
				C3.69,78.42,2.01,76.75,2,74.69c0-0.01,0-0.01,0-0.02V5.74C2,3.68,3.68,2,5.74,2c0.01,0,0.01,0,0.02,0h27.75
				c2.07,0,3.75,1.67,3.76,3.74v68.93H37.25z"/>
			<line id="Linie_3" class="st1" x1="16.69" y1="12.05" x2="23.03" y2="12.05"/>
			<line id="Linie_4" class="st1" x1="3.69" y1="67.05" x2="35.73" y2="67.05"/>
		</g>
	</g>
	<g class="st2">
		<path class="st3" d="M172.79,418h-2.72l-2.6-6.98c0.09,0.69,0.15,1.29,0.2,1.81c0.05,0.53,0.07,1.15,0.07,1.87v3.3h-1.9v-9.01
			h2.65l2.67,6.99c-0.19-1.19-0.29-2.31-0.29-3.35v-3.64h1.91V418z"/>
		<path class="st3" d="M174.15,418v-9.01h5.37l-0.22,1.52h-3.02v2.39h2.63v1.52h-2.63V418H174.15z"/>
		<path class="st3" d="M185.1,409.02c0.44,0.17,0.85,0.41,1.24,0.74l-1.01,1.21c-0.27-0.21-0.53-0.36-0.79-0.47
			c-0.26-0.1-0.54-0.16-0.83-0.16c-0.61,0-1.09,0.26-1.44,0.77c-0.35,0.51-0.53,1.3-0.53,2.37c0,1.05,0.18,1.83,0.53,2.33
			s0.84,0.76,1.46,0.76c0.33,0,0.63-0.06,0.9-0.19c0.27-0.13,0.56-0.31,0.87-0.54l0.95,1.22c-0.34,0.34-0.75,0.62-1.23,0.83
			c-0.48,0.22-1.01,0.32-1.59,0.32c-0.83,0-1.56-0.18-2.17-0.55s-1.09-0.9-1.44-1.62s-0.51-1.58-0.51-2.58
			c0-0.98,0.18-1.82,0.53-2.53c0.35-0.71,0.84-1.25,1.46-1.62c0.62-0.37,1.32-0.55,2.11-0.55
			C184.17,408.77,184.67,408.85,185.1,409.02z"/>
	</g>
	<g id="Gruppe_1155" transform="translate(198 376)">
		<path id="Pfad_831" class="st1" d="M2,9.84c8.65,0,15.67,7.01,15.67,15.67c0,0,0,0,0,0"/>
		<path id="Pfad_832" class="st1" d="M2,2c12.98,0,23.51,10.53,23.51,23.51"/>
		<path id="Pfad_833" class="st1" d="M2,18.42c3.91,0,7.09,3.17,7.09,7.08c0,0,0,0.01,0,0.01"/>
	</g>
</g>
</svg>
